ALU/ALU_PROC_FINAL/simulation/qsim/ALU_PROC_FINAL.msim.vcd
$comment
	File created using the following command:
		vcd file ALU_PROC_FINAL.msim.vcd -direction
$end
$date
	Thu Nov 30 19:29:30 2023
$end
$version
	Questa Intel Starter FPGA Edition Version 2021.2
$end
$timescale
	1ps
$end

$scope module alu_proc_final_vhd_vec_tst $end
$var wire 1 ! A [7] $end
$var wire 1 " A [6] $end
$var wire 1 # A [5] $end
$var wire 1 $ A [4] $end
$var wire 1 % A [3] $end
$var wire 1 & A [2] $end
$var wire 1 ' A [1] $end
$var wire 1 ( A [0] $end
$var wire 1 ) B [7] $end
$var wire 1 * B [6] $end
$var wire 1 + B [5] $end
$var wire 1 , B [4] $end
$var wire 1 - B [3] $end
$var wire 1 . B [2] $end
$var wire 1 / B [1] $end
$var wire 1 0 B [0] $end
$var wire 1 1 C $end
$var wire 1 2 F [7] $end
$var wire 1 3 F [6] $end
$var wire 1 4 F [5] $end
$var wire 1 5 F [4] $end
$var wire 1 6 F [3] $end
$var wire 1 7 F [2] $end
$var wire 1 8 F [1] $end
$var wire 1 9 F [0] $end
$var wire 1 : selec [2] $end
$var wire 1 ; selec [1] $end
$var wire 1 < selec [0] $end
$var wire 1 = Z $end

$scope module i1 $end
$var wire 1 > gnd $end
$var wire 1 ? vcc $end
$var wire 1 @ unknown $end
$var wire 1 A devoe $end
$var wire 1 B devclrn $end
$var wire 1 C devpor $end
$var wire 1 D ww_devoe $end
$var wire 1 E ww_devclrn $end
$var wire 1 F ww_devpor $end
$var wire 1 G ww_A [7] $end
$var wire 1 H ww_A [6] $end
$var wire 1 I ww_A [5] $end
$var wire 1 J ww_A [4] $end
$var wire 1 K ww_A [3] $end
$var wire 1 L ww_A [2] $end
$var wire 1 M ww_A [1] $end
$var wire 1 N ww_A [0] $end
$var wire 1 O ww_B [7] $end
$var wire 1 P ww_B [6] $end
$var wire 1 Q ww_B [5] $end
$var wire 1 R ww_B [4] $end
$var wire 1 S ww_B [3] $end
$var wire 1 T ww_B [2] $end
$var wire 1 U ww_B [1] $end
$var wire 1 V ww_B [0] $end
$var wire 1 W ww_selec [2] $end
$var wire 1 X ww_selec [1] $end
$var wire 1 Y ww_selec [0] $end
$var wire 1 Z ww_F [7] $end
$var wire 1 [ ww_F [6] $end
$var wire 1 \ ww_F [5] $end
$var wire 1 ] ww_F [4] $end
$var wire 1 ^ ww_F [3] $end
$var wire 1 _ ww_F [2] $end
$var wire 1 ` ww_F [1] $end
$var wire 1 a ww_F [0] $end
$var wire 1 b ww_C $end
$var wire 1 c ww_Z $end
$var wire 1 d \~QUARTUS_CREATED_ADC1~_CHSEL_bus\ [4] $end
$var wire 1 e \~QUARTUS_CREATED_ADC1~_CHSEL_bus\ [3] $end
$var wire 1 f \~QUARTUS_CREATED_ADC1~_CHSEL_bus\ [2] $end
$var wire 1 g \~QUARTUS_CREATED_ADC1~_CHSEL_bus\ [1] $end
$var wire 1 h \~QUARTUS_CREATED_ADC1~_CHSEL_bus\ [0] $end
$var wire 1 i \~QUARTUS_CREATED_ADC2~_CHSEL_bus\ [4] $end
$var wire 1 j \~QUARTUS_CREATED_ADC2~_CHSEL_bus\ [3] $end
$var wire 1 k \~QUARTUS_CREATED_ADC2~_CHSEL_bus\ [2] $end
$var wire 1 l \~QUARTUS_CREATED_ADC2~_CHSEL_bus\ [1] $end
$var wire 1 m \~QUARTUS_CREATED_ADC2~_CHSEL_bus\ [0] $end
$var wire 1 n \~QUARTUS_CREATED_GND~I_combout\ $end
$var wire 1 o \~QUARTUS_CREATED_UNVM~~busy\ $end
$var wire 1 p \~QUARTUS_CREATED_ADC1~~eoc\ $end
$var wire 1 q \~QUARTUS_CREATED_ADC2~~eoc\ $end
$var wire 1 r \F[0]~output_o\ $end
$var wire 1 s \F[1]~output_o\ $end
$var wire 1 t \F[2]~output_o\ $end
$var wire 1 u \F[3]~output_o\ $end
$var wire 1 v \F[4]~output_o\ $end
$var wire 1 w \F[5]~output_o\ $end
$var wire 1 x \F[6]~output_o\ $end
$var wire 1 y \F[7]~output_o\ $end
$var wire 1 z \C~output_o\ $end
$var wire 1 { \Z~output_o\ $end
$var wire 1 | \A[0]~input_o\ $end
$var wire 1 } \B[0]~input_o\ $end
$var wire 1 ~ \Add0~0_combout\ $end
$var wire 1 !! \selec[1]~input_o\ $end
$var wire 1 "! \selec[2]~input_o\ $end
$var wire 1 #! \A[1]~input_o\ $end
$var wire 1 $! \auxf~0_combout\ $end
$var wire 1 %! \selec[0]~input_o\ $end
$var wire 1 &! \auxf~2_combout\ $end
$var wire 1 '! \auxf~1_combout\ $end
$var wire 1 (! \auxf~3_combout\ $end
$var wire 1 )! \B[1]~input_o\ $end
$var wire 1 *! \Add0~1\ $end
$var wire 1 +! \Add0~2_combout\ $end
$var wire 1 ,! \auxf~5_combout\ $end
$var wire 1 -! \auxf~6_combout\ $end
$var wire 1 .! \A[2]~input_o\ $end
$var wire 1 /! \auxf~7_combout\ $end
$var wire 1 0! \auxf~4_combout\ $end
$var wire 1 1! \auxf~8_combout\ $end
$var wire 1 2! \B[2]~input_o\ $end
$var wire 1 3! \auxf~9_combout\ $end
$var wire 1 4! \Add0~3\ $end
$var wire 1 5! \Add0~4_combout\ $end
$var wire 1 6! \auxf~10_combout\ $end
$var wire 1 7! \auxf~11_combout\ $end
$var wire 1 8! \A[3]~input_o\ $end
$var wire 1 9! \auxf~12_combout\ $end
$var wire 1 :! \auxf~13_combout\ $end
$var wire 1 ;! \B[3]~input_o\ $end
$var wire 1 <! \auxf~14_combout\ $end
$var wire 1 =! \A[4]~input_o\ $end
$var wire 1 >! \auxf~15_combout\ $end
$var wire 1 ?! \Add0~5\ $end
$var wire 1 @! \Add0~6_combout\ $end
$var wire 1 A! \auxf~16_combout\ $end
$var wire 1 B! \auxf~17_combout\ $end
$var wire 1 C! \auxf~18_combout\ $end
$var wire 1 D! \B[4]~input_o\ $end
$var wire 1 E! \Add0~7\ $end
$var wire 1 F! \Add0~8_combout\ $end
$var wire 1 G! \A[5]~input_o\ $end
$var wire 1 H! \auxf~21_combout\ $end
$var wire 1 I! \auxf~20_combout\ $end
$var wire 1 J! \auxf~22_combout\ $end
$var wire 1 K! \auxf~19_combout\ $end
$var wire 1 L! \auxf~23_combout\ $end
$var wire 1 M! \B[5]~input_o\ $end
$var wire 1 N! \auxf~24_combout\ $end
$var wire 1 O! \Add0~9\ $end
$var wire 1 P! \Add0~10_combout\ $end
$var wire 1 Q! \A[6]~input_o\ $end
$var wire 1 R! \auxf~26_combout\ $end
$var wire 1 S! \auxf~25_combout\ $end
$var wire 1 T! \auxf~27_combout\ $end
$var wire 1 U! \auxf~28_combout\ $end
$var wire 1 V! \B[6]~input_o\ $end
$var wire 1 W! \auxf~30_combout\ $end
$var wire 1 X! \A[7]~input_o\ $end
$var wire 1 Y! \Add0~11\ $end
$var wire 1 Z! \Add0~12_combout\ $end
$var wire 1 [! \auxf~31_combout\ $end
$var wire 1 \! \auxf~32_combout\ $end
$var wire 1 ]! \auxf~29_combout\ $end
$var wire 1 ^! \auxf~33_combout\ $end
$var wire 1 _! \B[7]~input_o\ $end
$var wire 1 `! \Add0~13\ $end
$var wire 1 a! \Add0~14_combout\ $end
$var wire 1 b! \auxf~35_combout\ $end
$var wire 1 c! \auxf~34_combout\ $end
$var wire 1 d! \auxf~36_combout\ $end
$var wire 1 e! \auxf~39_combout\ $end
$var wire 1 f! \auxf~40_combout\ $end
$var wire 1 g! \Add0~15\ $end
$var wire 1 h! \Add0~16_combout\ $end
$var wire 1 i! \auxf~37_combout\ $end
$var wire 1 j! \auxf~38_combout\ $end
$var wire 1 k! \tmp[7]~1_combout\ $end
$var wire 1 l! \tmp[7]~0_combout\ $end
$var wire 1 m! tmp [7] $end
$var wire 1 n! tmp [6] $end
$var wire 1 o! tmp [5] $end
$var wire 1 p! tmp [4] $end
$var wire 1 q! tmp [3] $end
$var wire 1 r! tmp [2] $end
$var wire 1 s! tmp [1] $end
$var wire 1 t! tmp [0] $end
$var wire 1 u! ALT_INV_tmp [7] $end
$upscope $end
$upscope $end
$enddefinitions $end
#0
$dumpvars
11
0=
0>
1?
x@
1A
1B
1C
1D
1E
1F
1b
0c
0n
zo
zp
zq
1r
0s
1t
0u
0v
0w
0x
0y
1z
0{
0|
1}
1~
0!!
0"!
1#!
0$!
0%!
0&!
0'!
1(!
1)!
0*!
0+!
1,!
0-!
1.!
0/!
10!
01!
12!
13!
04!
15!
16!
17!
08!
19!
1:!
1;!
1<!
1=!
0>!
1?!
0@!
0A!
0B!
0C!
0D!
0E!
0F!
1G!
0H!
0I!
0J!
1K!
0L!
0M!
1N!
1O!
0P!
1Q!
0R!
0S!
0T!
0U!
0V!
0W!
1X!
0Y!
0Z!
0[!
0\!
1]!
0^!
0_!
1`!
0a!
0b!
0c!
0d!
1e!
0f!
0g!
1h!
0i!
1j!
0k!
1l!
1!
1"
1#
1$
0%
1&
1'
0(
0)
0*
0+
0,
1-
1.
1/
10
0:
0;
0<
1G
1H
1I
1J
0K
1L
1M
0N
0O
0P
0Q
0R
1S
1T
1U
1V
0W
0X
0Y
1m!
xn!
xo!
xp!
xq!
xr!
xs!
xt!
0u!
0d
0e
0f
0g
0h
0i
0j
0k
0l
0m
02
03
04
05
06
17
08
19
0Z
0[
0\
0]
0^
1_
0`
1a
$end
#100000
1<
1Y
1%!
1'!
1-!
00!
03!
0K!
0N!
0]!
1c!
0e!
1i!
0j!
1/!
0(!
0z
0r
11!
0b
0a
01
09
1s
1`
18
#200000
0<
1;
0Y
1X
0%!
1!!
01!
0:!
1C!
1&!
0'!
0-!
10!
13!
1K!
1N!
1]!
0c!
1e!
0i!
0s
0t
1u
1f!
1^!
1U!
1L!
1:!
11!
0/!
1(!
1k!
0l!
0`
0_
1^
08
07
16
1y
1x
1w
1v
1t
1s
1r
1l!
1Z
1[
1\
1]
1_
1`
1a
19
18
17
15
14
13
12
#300000
1<
1Y
1%!
1'!
1-!
00!
03!
0K!
0N!
0]!
1c!
0e!
1i!
0f!
0^!
0U!
0L!
0:!
01!
1/!
0y
0x
0w
0v
0t
0s
0Z
0[
0\
0]
0_
0`
08
07
05
04
03
02
#400000
0<
0;
1:
0Y
0X
1W
0%!
0!!
1"!
1$!
0/!
1B!
11!
1:!
0C!
1d!
1j!
0&!
0-!
07!
1H!
1K!
1N!
1R!
1[!
1]!
0c!
1e!
0i!
1s
1t
0u
1z
0j!
0d!
1\!
1T!
1J!
09!
1/!
0(!
1f!
0k!
1C!
01!
1&!
1`
1_
0^
1b
18
17
06
11
0z
0r
1y
1u
0s
1(!
11!
0:!
1L!
1k!
1U!
1^!
0f!
0b
0a
1Z
1^
0`
01
09
08
16
12
1r
1s
0t
1v
1w
1x
0y
1a
1`
0_
1]
1\
1[
0Z
19
18
07
15
14
13
02
#500000
1<
1Y
1%!
0&!
1-!
10!
13!
17!
1A!
0J!
0K!
0N!
0]!
1c!
0e!
1i!
1j!
1d!
0L!
19!
0/!
0(!
1z
0v
0r
01!
1:!
1f!
1b
0]
0a
11
09
05
0s
1t
1y
0`
1_
1Z
08
17
12
#600000
0<
1;
0Y
1X
0%!
1!!
11!
0U!
0^!
0f!
0j!
0'!
0-!
00!
03!
07!
0A!
1J!
1K!
1N!
1]!
0c!
1e!
0i!
1s
0w
0x
0y
0z
1f!
1^!
1U!
1L!
09!
0:!
01!
1/!
1(!
1`
0\
0[
0Z
0b
18
04
03
02
01
1y
1x
1w
1v
0t
0s
1r
1Z
1[
1\
1]
0_
0`
1a
19
08
07
15
14
13
12
#700000
1<
1Y
1%!
1&!
1-!
10!
13!
17!
1A!
0J!
0K!
0N!
0]!
1c!
0e!
1i!
0f!
0^!
0U!
0L!
19!
1:!
11!
0/!
0y
0x
0w
0v
1t
1s
0Z
0[
0\
0]
1_
1`
18
17
05
04
03
02
#800000
0<
0;
0:
0!
0"
0#
0$
0&
0'
0-
0.
0/
00
0Y
0X
0W
0M
0L
0J
0I
0H
0G
0V
0U
0T
0S
0%!
0!!
0"!
0#!
0.!
0=!
0G!
0Q!
0X!
0}
0)!
02!
0;!
1@!
1E!
0~
0(!
1a!
1g!
1Z!
0`!
1P!
1Y!
1F!
0O!
0?!
06!
14!
0,!
0$!
1/!
01!
1U!
1^!
0d!
1f!
0&!
0-!
00!
03!
0<!
0A!
0H!
1J!
0R!
0[!
0c!
0i!
0r
0s
1w
1x
1y
1j!
0\!
0T!
1L!
0J!
0B!
0/!
0f!
11!
05!
0@!
0P!
1H!
0Z!
1R!
0a!
1[!
0h!
1b!
0F!
1A!
0a
0`
1\
1[
1Z
09
08
14
13
12
1z
1v
0y
1s
1B!
0H!
1d!
0j!
1\!
0b!
1T!
0[!
1J!
0R!
0A!
07!
01!
0C!
0L!
0U!
0^!
1b
1]
0Z
1`
11
18
15
02
0z
0s
0u
0v
0w
0x
09!
0B!
0T!
1L!
0\!
1U!
0d!
1^!
1f!
0J!
1C!
0b
0`
0^
0]
0\
0[
01
08
06
05
04
03
1v
1w
1x
1y
1u
0L!
0f!
0^!
0U!
0C!
0:!
1]
1\
1[
1Z
1^
16
15
14
13
12
0v
0y
0x
0w
0u
0t
0k!
0l!
0]
0Z
0[
0\
0^
0_
07
06
05
04
03
02
0m!
1u!
1{
1c
1=
#900000
1!
1"
1#
1$
1&
1'
1-
1.
1/
10
1%
1(
1)
1*
1+
1,
1N
1M
1L
1K
1J
1I
1H
1G
1V
1U
1T
1S
1R
1Q
1P
1O
1|
1#!
1.!
18!
1=!
1G!
1Q!
1X!
1}
1)!
12!
1;!
1D!
1M!
1V!
1_!
0g!
1e!
1W!
1`!
1]!
1N!
0Y!
1S!
1O!
1I!
1K!
1<!
1>!
0E!
13!
1?!
16!
04!
1,!
10!
1*!
1$!
1+!
15!
1@!
1F!
1P!
1Z!
1a!
1h!
1j!
1b!
1[!
1R!
1H!
1A!
17!
1-!
1z
1/!
19!
1B!
1J!
1T!
1\!
1d!
1b
11
0e!
1f!
1^!
1U!
1L!
1k!
1C!
1:!
11!
1y
1x
1w
1v
1u
1t
1s
1m!
1l!
1Z
1[
1\
1]
1^
1_
1`
0u!
18
17
16
15
14
13
12
0{
0c
0=
