ALU/ALU_PROC_FINAL/simulation/qsim/ALU_PROC_FINAL.msim.vcd
$comment
	File created using the following command:
		vcd file ALU_PROC_FINAL.msim.vcd -direction
$end
$date
	Thu Oct 26 22:30:11 2023
$end
$version
	Questa Intel Starter FPGA Edition Version 2021.2
$end
$timescale
	1ps
$end

$scope module alu_proc_final_vhd_vec_tst $end
$var wire 1 ! A [7] $end
$var wire 1 " A [6] $end
$var wire 1 # A [5] $end
$var wire 1 $ A [4] $end
$var wire 1 % A [3] $end
$var wire 1 & A [2] $end
$var wire 1 ' A [1] $end
$var wire 1 ( A [0] $end
$var wire 1 ) B [7] $end
$var wire 1 * B [6] $end
$var wire 1 + B [5] $end
$var wire 1 , B [4] $end
$var wire 1 - B [3] $end
$var wire 1 . B [2] $end
$var wire 1 / B [1] $end
$var wire 1 0 B [0] $end
$var wire 1 1 C $end
$var wire 1 2 F [7] $end
$var wire 1 3 F [6] $end
$var wire 1 4 F [5] $end
$var wire 1 5 F [4] $end
$var wire 1 6 F [3] $end
$var wire 1 7 F [2] $end
$var wire 1 8 F [1] $end
$var wire 1 9 F [0] $end
$var wire 1 : selec [2] $end
$var wire 1 ; selec [1] $end
$var wire 1 < selec [0] $end
$var wire 1 = Z $end

$scope module i1 $end
$var wire 1 > gnd $end
$var wire 1 ? vcc $end
$var wire 1 @ unknown $end
$var wire 1 A devoe $end
$var wire 1 B devclrn $end
$var wire 1 C devpor $end
$var wire 1 D ww_devoe $end
$var wire 1 E ww_devclrn $end
$var wire 1 F ww_devpor $end
$var wire 1 G ww_A [7] $end
$var wire 1 H ww_A [6] $end
$var wire 1 I ww_A [5] $end
$var wire 1 J ww_A [4] $end
$var wire 1 K ww_A [3] $end
$var wire 1 L ww_A [2] $end
$var wire 1 M ww_A [1] $end
$var wire 1 N ww_A [0] $end
$var wire 1 O ww_B [7] $end
$var wire 1 P ww_B [6] $end
$var wire 1 Q ww_B [5] $end
$var wire 1 R ww_B [4] $end
$var wire 1 S ww_B [3] $end
$var wire 1 T ww_B [2] $end
$var wire 1 U ww_B [1] $end
$var wire 1 V ww_B [0] $end
$var wire 1 W ww_selec [2] $end
$var wire 1 X ww_selec [1] $end
$var wire 1 Y ww_selec [0] $end
$var wire 1 Z ww_F [7] $end
$var wire 1 [ ww_F [6] $end
$var wire 1 \ ww_F [5] $end
$var wire 1 ] ww_F [4] $end
$var wire 1 ^ ww_F [3] $end
$var wire 1 _ ww_F [2] $end
$var wire 1 ` ww_F [1] $end
$var wire 1 a ww_F [0] $end
$var wire 1 b ww_C $end
$var wire 1 c ww_Z $end
$var wire 1 d \~QUARTUS_CREATED_ADC1~_CHSEL_bus\ [4] $end
$var wire 1 e \~QUARTUS_CREATED_ADC1~_CHSEL_bus\ [3] $end
$var wire 1 f \~QUARTUS_CREATED_ADC1~_CHSEL_bus\ [2] $end
$var wire 1 g \~QUARTUS_CREATED_ADC1~_CHSEL_bus\ [1] $end
$var wire 1 h \~QUARTUS_CREATED_ADC1~_CHSEL_bus\ [0] $end
$var wire 1 i \~QUARTUS_CREATED_ADC2~_CHSEL_bus\ [4] $end
$var wire 1 j \~QUARTUS_CREATED_ADC2~_CHSEL_bus\ [3] $end
$var wire 1 k \~QUARTUS_CREATED_ADC2~_CHSEL_bus\ [2] $end
$var wire 1 l \~QUARTUS_CREATED_ADC2~_CHSEL_bus\ [1] $end
$var wire 1 m \~QUARTUS_CREATED_ADC2~_CHSEL_bus\ [0] $end
$var wire 1 n \~QUARTUS_CREATED_GND~I_combout\ $end
$var wire 1 o \~QUARTUS_CREATED_UNVM~~busy\ $end
$var wire 1 p \~QUARTUS_CREATED_ADC1~~eoc\ $end
$var wire 1 q \~QUARTUS_CREATED_ADC2~~eoc\ $end
$var wire 1 r \F[0]~output_o\ $end
$var wire 1 s \F[1]~output_o\ $end
$var wire 1 t \F[2]~output_o\ $end
$var wire 1 u \F[3]~output_o\ $end
$var wire 1 v \F[4]~output_o\ $end
$var wire 1 w \F[5]~output_o\ $end
$var wire 1 x \F[6]~output_o\ $end
$var wire 1 y \F[7]~output_o\ $end
$var wire 1 z \C~output_o\ $end
$var wire 1 { \Z~output_o\ $end
$var wire 1 | \A[0]~input_o\ $end
$var wire 1 } \B[0]~input_o\ $end
$var wire 1 ~ \Add0~0_combout\ $end
$var wire 1 !! \selec[1]~input_o\ $end
$var wire 1 "! \selec[2]~input_o\ $end
$var wire 1 #! \A[1]~input_o\ $end
$var wire 1 $! \auxf~0_combout\ $end
$var wire 1 %! \selec[0]~input_o\ $end
$var wire 1 &! \auxf~2_combout\ $end
$var wire 1 '! \auxf~1_combout\ $end
$var wire 1 (! \auxf~3_combout\ $end
$var wire 1 )! \B[1]~input_o\ $end
$var wire 1 *! \Add0~1\ $end
$var wire 1 +! \Add0~2_combout\ $end
$var wire 1 ,! \auxf~5_combout\ $end
$var wire 1 -! \auxf~6_combout\ $end
$var wire 1 .! \A[2]~input_o\ $end
$var wire 1 /! \auxf~7_combout\ $end
$var wire 1 0! \auxf~4_combout\ $end
$var wire 1 1! \auxf~8_combout\ $end
$var wire 1 2! \B[2]~input_o\ $end
$var wire 1 3! \auxf~9_combout\ $end
$var wire 1 4! \Add0~3\ $end
$var wire 1 5! \Add0~4_combout\ $end
$var wire 1 6! \auxf~10_combout\ $end
$var wire 1 7! \auxf~11_combout\ $end
$var wire 1 8! \A[3]~input_o\ $end
$var wire 1 9! \auxf~12_combout\ $end
$var wire 1 :! \auxf~13_combout\ $end
$var wire 1 ;! \B[3]~input_o\ $end
$var wire 1 <! \auxf~14_combout\ $end
$var wire 1 =! \A[4]~input_o\ $end
$var wire 1 >! \auxf~15_combout\ $end
$var wire 1 ?! \Add0~5\ $end
$var wire 1 @! \Add0~6_combout\ $end
$var wire 1 A! \auxf~16_combout\ $end
$var wire 1 B! \auxf~17_combout\ $end
$var wire 1 C! \auxf~18_combout\ $end
$var wire 1 D! \B[4]~input_o\ $end
$var wire 1 E! \Add0~7\ $end
$var wire 1 F! \Add0~8_combout\ $end
$var wire 1 G! \A[5]~input_o\ $end
$var wire 1 H! \auxf~21_combout\ $end
$var wire 1 I! \auxf~20_combout\ $end
$var wire 1 J! \auxf~22_combout\ $end
$var wire 1 K! \auxf~19_combout\ $end
$var wire 1 L! \auxf~23_combout\ $end
$var wire 1 M! \B[5]~input_o\ $end
$var wire 1 N! \auxf~24_combout\ $end
$var wire 1 O! \Add0~9\ $end
$var wire 1 P! \Add0~10_combout\ $end
$var wire 1 Q! \A[6]~input_o\ $end
$var wire 1 R! \auxf~26_combout\ $end
$var wire 1 S! \auxf~25_combout\ $end
$var wire 1 T! \auxf~27_combout\ $end
$var wire 1 U! \auxf~28_combout\ $end
$var wire 1 V! \B[6]~input_o\ $end
$var wire 1 W! \auxf~30_combout\ $end
$var wire 1 X! \A[7]~input_o\ $end
$var wire 1 Y! \Add0~11\ $end
$var wire 1 Z! \Add0~12_combout\ $end
$var wire 1 [! \auxf~31_combout\ $end
$var wire 1 \! \auxf~32_combout\ $end
$var wire 1 ]! \auxf~29_combout\ $end
$var wire 1 ^! \auxf~33_combout\ $end
$var wire 1 _! \B[7]~input_o\ $end
$var wire 1 `! \Add0~13\ $end
$var wire 1 a! \Add0~14_combout\ $end
$var wire 1 b! \auxf~35_combout\ $end
$var wire 1 c! \auxf~34_combout\ $end
$var wire 1 d! \auxf~36_combout\ $end
$var wire 1 e! \auxf~39_combout\ $end
$var wire 1 f! \auxf~40_combout\ $end
$var wire 1 g! \Add0~15\ $end
$var wire 1 h! \Add0~16_combout\ $end
$var wire 1 i! \auxf~37_combout\ $end
$var wire 1 j! \auxf~38_combout\ $end
$var wire 1 k! \tmp[7]~1_combout\ $end
$var wire 1 l! \tmp[7]~0_combout\ $end
$var wire 1 m! tmp [7] $end
$var wire 1 n! tmp [6] $end
$var wire 1 o! tmp [5] $end
$var wire 1 p! tmp [4] $end
$var wire 1 q! tmp [3] $end
$var wire 1 r! tmp [2] $end
$var wire 1 s! tmp [1] $end
$var wire 1 t! tmp [0] $end
$var wire 1 u! ALT_INV_tmp [7] $end
$upscope $end
$upscope $end
$enddefinitions $end
#0
$dumpvars
11
0=
0>
1?
x@
1A
1B
1C
1D
1E
1F
1b
0c
0n
zo
zp
zq
0r
1s
1t
1u
1v
1w
1x
1y
1z
0{
1|
1}
0~
0!!
0"!
1#!
1$!
0%!
0&!
0'!
0(!
1)!
1*!
1+!
1,!
1-!
1.!
1/!
10!
11!
12!
13!
04!
15!
16!
17!
18!
19!
1:!
1;!
1<!
1=!
1>!
1?!
1@!
1A!
1B!
1C!
1D!
0E!
1F!
1G!
1H!
1I!
1J!
1K!
1L!
1M!
1N!
1O!
1P!
1Q!
1R!
1S!
1T!
1U!
1V!
1W!
1X!
0Y!
1Z!
1[!
1\!
1]!
1^!
1_!
1`!
1a!
1b!
0c!
1d!
0e!
1f!
0g!
1h!
0i!
1j!
1k!
1l!
1!
1"
1#
1$
1%
1&
1'
1(
1)
1*
1+
1,
1-
1.
1/
10
0:
0;
0<
1G
1H
1I
1J
1K
1L
1M
1N
1O
1P
1Q
1R
1S
1T
1U
1V
0W
0X
0Y
1m!
xn!
xo!
xp!
xq!
xr!
xs!
xt!
0u!
0d
0e
0f
0g
0h
0i
0j
0k
0l
0m
12
13
14
15
16
17
18
09
1Z
1[
1\
1]
1^
1_
1`
0a
$end
#100000
1<
1Y
1%!
1&!
00!
03!
0<!
0H!
0K!
0N!
0R!
0[!
0]!
1c!
1e!
1i!
0j!
1(!
0z
1r
0b
1a
01
19
#200000
0<
1;
0Y
1X
0%!
1!!
01!
0:!
0C!
0L!
0U!
0^!
0d!
1'!
10!
13!
1<!
1H!
0J!
1K!
1N!
1R!
0T!
1[!
0\!
1]!
0c!
0e!
0i!
0s
0t
0u
0v
0w
0x
1^!
1\!
1T!
1U!
1L!
1J!
1C!
1:!
11!
1e!
0f!
0`
0_
0^
0]
0\
0[
08
07
06
05
04
03
1x
1w
1v
1u
1t
1s
0y
1f!
1[
1\
1]
1^
1_
1`
0Z
18
17
16
15
14
13
02
1y
1Z
12
#300000
1<
1Y
1%!
0&!
00!
03!
0<!
0H!
0K!
0N!
0R!
0[!
0]!
1c!
0e!
1i!
0f!
0^!
0U!
0L!
0C!
0:!
01!
0(!
0y
0x
0w
0v
0u
0t
0s
0r
0k!
0l!
0Z
0[
0\
0]
0^
0_
0`
0a
09
08
07
06
05
04
03
02
0m!
1u!
1{
1c
1=
#400000
0<
0;
1:
0Y
0X
1W
0%!
0!!
1"!
11!
1:!
1C!
1L!
1U!
1^!
1d!
1j!
1k!
1&!
0-!
07!
0A!
1H!
0J!
1R!
0T!
1[!
0\!
0c!
1e!
1s
1t
1u
1v
1w
1x
1z
0d!
0^!
1\!
0U!
1T!
0L!
1J!
1(!
0e!
1f!
1m!
1l!
1`
1_
1^
1]
1\
1[
1b
0u!
18
17
16
15
14
13
11
0x
0w
0v
1r
1y
1L!
1U!
1^!
1e!
0f!
0[
0\
0]
1a
1Z
0{
19
05
04
03
12
0c
1v
1w
1x
0y
0=
1]
1\
1[
0Z
15
14
13
02
#500000
1<
1Y
1%!
0&!
1-!
10!
13!
17!
1<!
1A!
1K!
1N!
1]!
1c!
0e!
1d!
0(!
0r
1e!
1f!
0a
09
1y
1Z
12
#600000
0<
1;
0Y
1X
0%!
1!!
0j!
0'!
0-!
00!
03!
07!
0<!
0A!
0K!
0N!
0]!
0c!
0e!
0z
0f!
0^!
0U!
0L!
0C!
0:!
01!
0b
01
0y
0x
0w
0v
0u
0t
0s
0k!
0l!
0Z
0[
0\
0]
0^
0_
0`
08
07
06
05
04
03
02
0m!
1u!
1{
1c
1=
#700000
1<
1Y
1%!
1&!
1-!
10!
13!
17!
1<!
1A!
1K!
1N!
1]!
1c!
1e!
1f!
1^!
1U!
1L!
1k!
1C!
1:!
11!
1(!
1y
1x
1w
1v
1u
1t
1s
1r
1m!
1l!
1Z
1[
1\
1]
1^
1_
1`
1a
0u!
19
18
17
16
15
14
13
12
0{
0c
0=
#800000
0<
0;
0:
0!
0"
0#
0$
0%
0&
0'
0(
0)
0*
0+
0,
0-
0.
0/
00
0Y
0X
0W
0N
0M
0L
0K
0J
0I
0H
0G
0V
0U
0T
0S
0R
0Q
0P
0O
0%!
0!!
0"!
0|
0#!
0.!
08!
0=!
0G!
0Q!
0X!
0}
0)!
02!
0;!
0D!
0M!
0V!
0_!
0(!
1g!
0W!
0`!
1Y!
0S!
0O!
0I!
0>!
1E!
0?!
06!
14!
0,!
0*!
0$!
0&!
00!
03!
0<!
0K!
0N!
0]!
0c!
0e!
0i!
0r
1j!
0+!
05!
0@!
0F!
0P!
0Z!
0a!
0h!
0a
09
1z
0j!
0b!
0[!
0R!
0H!
0A!
07!
0-!
1b
11
0z
0/!
09!
0B!
0J!
0T!
0\!
0d!
0b
01
0f!
0^!
0U!
0L!
0C!
0:!
01!
0y
0x
0w
0v
0u
0t
0s
0k!
0l!
0Z
0[
0\
0]
0^
0_
0`
08
07
06
05
04
03
02
0m!
1u!
1{
1c
1=
#900000
1!
1"
1#
1$
1%
1&
1'
1(
1)
1*
1+
1,
1-
1.
1/
10
1N
1M
1L
1K
1J
1I
1H
1G
1V
1U
1T
1S
1R
1Q
1P
1O
1|
1#!
1.!
18!
1=!
1G!
1Q!
1X!
1}
1)!
12!
1;!
1D!
1M!
1V!
1_!
0g!
1e!
1W!
1`!
1]!
1N!
0Y!
1S!
1O!
1I!
1K!
1<!
1>!
0E!
13!
1?!
16!
04!
1,!
10!
1*!
1$!
1+!
15!
1@!
1F!
1P!
1Z!
1a!
1h!
1j!
1b!
1[!
1R!
1H!
1A!
17!
1-!
1z
1/!
19!
1B!
1J!
1T!
1\!
1d!
1b
11
0e!
1f!
1^!
1U!
1L!
1k!
1C!
1:!
11!
1y
1x
1w
1v
1u
1t
1s
1m!
1l!
1Z
1[
1\
1]
1^
1_
1`
0u!
18
17
16
15
14
13
12
0{
0c
0=
